run1,,,,,,,,,,,
10,37.115765,35.498463,38.738033,36.711666,38.358315,35.879986,25.413128,41.914394,37.66119,31.866985,35.9157925
15,38.344063,35.280293,28.745403,30.745388,32.83981,35.85846,33.225117,46.047462,38.675014,39.516983,35.9277993
20,29.426947,35.298996,34.118584,36.06215,33.814056,27.239477,33.50648,43.459892,37.882843,37.622715,34.843214
25,41.148457,39.375652,32.721966,34.668724,43.169395,47.467728,45.343853,43.738846,41.468784,42.38633,41.1489735
30,49.26419,37.845608,36.07434,45.822186,35.90887,37.11097,36.5418,39.122818,33.75033,28.478384,37.9919496
35,48.95953,41.92782,41.25767,40.31617,47.97387,40.730267,42.05565,41.013046,45.767418,39.019066,42.9020507
40,40.56132,43.6408,43.52012,46.59326,39.456936,35.94143,34.74807,48.39848,42.828705,33.590065,40.9279186
45,48.613388,49.381153,36.375053,44.860878,41.53006,43.390232,42.323093,41.541924,43.26562,37.798416,42.9079817
50,39.394356,47.870422,47.402256,43.342926,46.631496,41.121998,41.98639,46.599525,41.090023,45.49991,44.0939302
55,38.641163,49.14883,45.542072,47.930088,44.0149,44.092434,49.906544,48.63756,40.069954,41.781956,44.9765501
60,42.669983,49.120476,37.216125,49.361687,38.22184,48.762154,39.148853,37.27818,40.200916,43.666237,42.5646451
65,43.76319,36.421867,45.058796,40.57553,39.796097,36.56132,40.466793,48.166367,48.377243,36.0476,41.5234803
70,46.44772,39.362343,48.25574,49.459965,47.456123,43.20975,45.189888,44.10135,49.556458,47.7885,46.0827837
75,30.858788,37.776886,40.044003,48.113213,43.874462,40.60604,49.46593,49.325893,26.97896,41.888744,40.8932919
80,47.97263,44.76856,46.307636,35.18595,39.90249,42.29861,45.568264,41.759727,46.346985,44.07865,43.4189502
85,46.969364,40.761486,43.25656,46.743286,44.21978,43.103603,49.133835,48.201664,44.07224,47.684994,45.4146812
90,47.71959,50.077606,48.245605,49.296707,48.48141,46.99349,39.34013,49.09644,45.81579,48.769753,47.3836521
95,39.785465,41.70608,45.779877,44.498158,38.341736,44.505997,40.8908,40.8516,49.737385,48.898586,43.4995684
run2,,,,,,,,,,,
10,,,,,,,,,,,
15,,,,,,,,,,,
20,,,,,,,,,,,
25,,,,,,,,,,,
30,,,,,,,,,,,
35,,,,,,,,,,,
40,,,,,,,,,,,
45,,,,,,,,,,,
50,,,,,,,,,,,
55,,,,,,,,,,,
60,,,,,,,,,,,
65,,,,,,,,,,,
70,,,,,,,,,,,
75,,,,,,,,,,,
80,,,,,,,,,,,
85,,,,,,,,,,,
90,,,,,,,,,,,
95,,,,,,,,,,,
run3,,,,,,,,,,,
10,,,,,,,,,,,
15,,,,,,,,,,,
20,,,,,,,,,,,
25,,,,,,,,,,,
30,,,,,,,,,,,
35,,,,,,,,,,,
40,,,,,,,,,,,
45,,,,,,,,,,,
50,,,,,,,,,,,
55,,,,,,,,,,,
60,,,,,,,,,,,
65,,,,,,,,,,,
70,,,,,,,,,,,
75,,,,,,,,,,,
80,,,,,,,,,,,
85,,,,,,,,,,,
90,,,,,,,,,,,
95,,,,,,,,,,,
run4,,,,,,,,,,,
10,,,,,,,,,,,
15,,,,,,,,,,,
20,,,,,,,,,,,
25,,,,,,,,,,,
30,,,,,,,,,,,
35,,,,,,,,,,,
40,,,,,,,,,,,
45,,,,,,,,,,,
50,,,,,,,,,,,
55,,,,,,,,,,,
60,,,,,,,,,,,
65,,,,,,,,,,,
70,,,,,,,,,,,
75,,,,,,,,,,,
80,,,,,,,,,,,
85,,,,,,,,,,,
90,,,,,,,,,,,
95,,,,,,,,,,,
run5,,,,,,,,,,,
10,,,,,,,,,,,
15,,,,,,,,,,,
20,,,,,,,,,,,
25,,,,,,,,,,,
30,,,,,,,,,,,
35,,,,,,,,,,,
40,,,,,,,,,,,
45,,,,,,,,,,,
50,,,,,,,,,,,
55,,,,,,,,,,,
60,,,,,,,,,,,
65,,,,,,,,,,,
70,,,,,,,,,,,
75,,,,,,,,,,,
80,,,,,,,,,,,
85,,,,,,,,,,,
90,,,,,,,,,,,
95,,,,,,,,,,,
run6,,,,,,,,,,,
10,,,,,,,,,,,
15,,,,,,,,,,,
20,,,,,,,,,,,
25,,,,,,,,,,,
30,,,,,,,,,,,
35,,,,,,,,,,,
40,,,,,,,,,,,
45,,,,,,,,,,,
50,,,,,,,,,,,
55,,,,,,,,,,,
60,,,,,,,,,,,
65,,,,,,,,,,,
70,,,,,,,,,,,
75,,,,,,,,,,,
80,,,,,,,,,,,
85,,,,,,,,,,,
90,,,,,,,,,,,
95,,,,,,,,,,,
run7,,,,,,,,,,,
10,,,,,,,,,,,
15,,,,,,,,,,,
20,,,,,,,,,,,
25,,,,,,,,,,,
30,,,,,,,,,,,
35,,,,,,,,,,,
40,,,,,,,,,,,
45,,,,,,,,,,,
50,,,,,,,,,,,
55,,,,,,,,,,,
60,,,,,,,,,,,
65,,,,,,,,,,,
70,,,,,,,,,,,
75,,,,,,,,,,,
80,,,,,,,,,,,
85,,,,,,,,,,,
90,,,,,,,,,,,
95,,,,,,,,,,,
run8,,,,,,,,,,,
10,,,,,,,,,,,
15,,,,,,,,,,,
20,,,,,,,,,,,
25,,,,,,,,,,,
30,,,,,,,,,,,
35,,,,,,,,,,,
40,,,,,,,,,,,
45,,,,,,,,,,,
50,,,,,,,,,,,
55,,,,,,,,,,,
60,,,,,,,,,,,
65,,,,,,,,,,,
70,,,,,,,,,,,
75,,,,,,,,,,,
80,,,,,,,,,,,
85,,,,,,,,,,,
90,,,,,,,,,,,
95,,,,,,,,,,,
run9,,,,,,,,,,,
10,,,,,,,,,,,
15,,,,,,,,,,,
20,,,,,,,,,,,
25,,,,,,,,,,,
30,,,,,,,,,,,
35,,,,,,,,,,,
40,,,,,,,,,,,
45,,,,,,,,,,,
50,,,,,,,,,,,
55,,,,,,,,,,,
60,,,,,,,,,,,
65,,,,,,,,,,,
70,,,,,,,,,,,
75,,,,,,,,,,,
80,,,,,,,,,,,
85,,,,,,,,,,,
90,,,,,,,,,,,
95,,,,,,,,,,,
run10,,,,,,,,,,,
10,,,,,,,,,,,
15,,,,,,,,,,,
20,,,,,,,,,,,
25,,,,,,,,,,,
30,,,,,,,,,,,
35,,,,,,,,,,,
40,,,,,,,,,,,
45,,,,,,,,,,,
50,,,,,,,,,,,
55,,,,,,,,,,,
60,,,,,,,,,,,
65,,,,,,,,,,,
70,,,,,,,,,,,
75,,,,,,,,,,,
80,,,,,,,,,,,
85,,,,,,,,,,,
90,,,,,,,,,,,
95,,,,,,,,,,,
